{
	"buttons":{
		"save": "Save",
		"sign": "Sign",
		"delete": "Remove",
		"submit":"Enviar",
		"back": "Back",
		"new.activity": "New activity",
		"new.guide": "New guide",
		"new.lodging": "New lodging",
		"new.transportation": "New transportation",
		"new.bedroom": "New bedroom"

	},
	"imageUploader":{
		"title": "Add images",
		"button_add": "Add Images",
		"button_remove_all": "Remove all images",
		"button_update": "Update",
		"button_remove": "Remove"

	},
	"pages":{
		"contact":{
			"title":"Contact us",
			"comment":"Let us know how you want your experience to be. Tell us about your interests and hobbies. Then we will contact you and create together a unique experience for you."
		},
		"home":{
			"title":"Create and enjoy your",
			"title2":"travel experience",
			"comment":"Let our team know how you want your travel experience to be. We will create one that meets your expectations and we will let you know",
			"contact":"Contact us",
			"reservation":"Reservations",
			"demanded":"most demanded",
			"stat.title":"We have created experiences for clients from more than 80 countries",
			"stat.subtitle":"We create an experience that revolves around you.",
			"stat.option1":"Enjoy",
			"stat.option2":"Service",
			"stat.option3":"Customers"
		},
		"dashboard":{
			"signout":"Log out",
			"home":"Home",
			"tours":"My tours",
			"guides":"Guides",
			"activities":"Activities",
			"lodgings":"Lodgings",
			"transportations":"Transportations"	
		},
		"redirect":{
			"title":"Welcome to Cubag",
			"comment":"Check your email, Cubag sent you a confirmation link",
			"back_home": "Back home"
		
		}
	},
	"formContact":{
		"first_name": "Name",
		"last_name": "Apellidos",
		"email":"Email",
		"phone":"Phone",
		"phone_optional":"Optional",
		"description":"How can we help",
		"budget":"Expected budget",
		"howTo":"How did you hear about us?",
		"max":"Max. 500 characters",
		"budget.option1":"Less than $25K",
		"budget.option2":"$25K – $50K",
		"budget.option3":"$50K – $100K",
		"budget.option4":"$100K+"
		
	},
	"formAuth":{
		"signin_label": "Sign in",
		"signup_label": "Sign up",
		"name": "Name",
		"phone": "Phone",
		"email": "Email",
		"password": "Password",
		"password.condition": "Required: uppercase, number, special character",
		"confirm_password": "Confirm password"
	},
	"formPersonalData":{
		"title": "Personal information",
		"first_name": "First name",
		"last_name": "Last name",
		"email":"Email",
		"phone1":"Telephone number (Ex: +53 123 456 78)",
		"phone2":"Phone number (Option 2)",
		"street_address":"Address",
		"city":"City",
		"state":"State/Province",
		"zip":"Zip/Postal Code",
		"nit":"License self employment",
		"payments":"Payments",
		"payments.swift":"SWIFT transfer",
		"payments.cash":"Cash",
		"payments.card":"Card VISA/Mastercard",
		"payments.cryptocurrency":"Cryptocurrency"
	},
	"formActivity":{
		"title": "Activity Information",
		"description": "Provide information about the activity, event or attraction",
		"name": "Name of the activity, event or attraction",
		"details": "Details",
		"phone1":"Telephone number (Ex: +53 123 456 78)",
		"phone2":"Phone number (Option 2)",
		"location": "Location",
		"latitude": "Latitude",
		"longitude": "Longitude",
		"price": "Price",
		"price_day": "Price per day",
		"price_person": "Price per person",
		"duration": "Duration of activity",
		"features": "Characteristics of the activity, event or attraction",
		"features.restaurant": "Restaurant",
		"features.bar": "Bar",
		"features.club": "Club",
		"features.monument": "Monument",
		"features.museum": "Museum",
		"features.gallery": "Gallery",
		"features.theatre": "Theatre",
		"features.cinema": "Cinema",
		"features.square": "Square",
		"features.park": "Park",
		"features.festival": "Festival",
		"features.concert": "Concert",
		"features.indoor": "Indoor activity",
		"features.outdoor": "Outdoor activity",
		"features.reservation": "Reservation",
		"features.horse": "Horse riding",
		"features.diving": "Diving",
		"features.walking": "Walking",
		"features.running": "Running",
		"features.trekking": "Trekking",
		"features.cyclism": "Cyclism",
		"features.sports": "Sports",
		"features.rum": "Rum",
		"features.cigar": "Tabacco",
		"features.coffee": "Coffee",
		"features.religion": "Religion",
		"features.kitchen": "Kitchen",
		"features.architecture": "Architecture",
		"features.night_life": "Night life",
		"features.marketplace": "Marketplace",
		"features.river": "River",
		"features.lake": "Lake",
		"features.sea": "Sea",
		"features.beach_sand": "Sandy beach",
		"features.beach_stone": "Stone beach",
		"features.mountain": "Mountain",
		"features.country": "Country",
		"features.nature": "Nature",
		"features.music": "Musci",
		"features.dance": "Dance",
		"features.visual_arts": "Visual arts",
		"features.education": "Education",
		"features.political": "Politics",
		"features.history": "History",
		"features.local": "Local History"
	},
	"formGuide":{
		"title": "Guide information",
		"description": "Fill out this form about your knowledge",
		"knowledge": "Comment on your experiences in the activity",
		"knowledge_label": "Provide a description, as complete as possible, of your experience in the activity",
		"language_known": "Known languages",
		"language.spanish": "Spanish",
		"language.english": "English",
		"language.french": "French",
		"language.german": "German",
		"language.italian": "Italian",
		"language.portuguese": "Portuguese",
		"language.russian": "Russian",
		"language.chinese": "Chinese",
		"language.japanese": "Japanese",
		"language.deutch": "Dutch",
		"language.poland": "Polish",
		"language.danish": "Danish",
		"specialties": "Specialties",
		"specialties.master": "Master/Specialist",
		"specialties.general": "General knowledge",
		"specialties.trustman": "Local Connoisseur",
		"specialties.travel_guide": "Travel Guide",
		"specialties.music": "Specialized in music",
		"specialties.dance": "Specialized in dance",
		"specialties.visual_arts": "Specialized in visual arts",
		"specialties.education": "Specialized in Education",
		"specialties.political": "Specialized in Politics",
		"specialties.history": "Specialized in History",
		"specialties.local": "Specialized in Local History",
		"specialties.rum": "Specialized in rum",
		"specialties.cigar": "Specialized in tobacco",
		"specialties.coffee": "Specialized in coffee",
		"specialties.religion": "Specialized in religion",
		"specialties.gourmet": "Specialized in traditional cuisine",
		"specialties.nature": "Specialized in natural environments",
		"specialties.flower": "Specialized in flora and fauna",
		"location_availability": "Where can you provide the service",
		"location.locality": "In the locality",
		"location.province": "Within the province",
		"location.near_province": "Nearby provinces",
		"location.western": "Western",
		"location.eastern": "Eastern",
		"location.central": "Central",
		"services": "Other important services",
		"services.help": "Help and assistance to the client",
		"services.help.label": "Availability for activities such as: going to stores, banks, transportation, etc.",
		"services.activities": "Other related activities",
		"services.activities.label": "Participate/guide in activities such as: visits to museums, climbing, etc.",
		"services.fulltime": "Available full time",
		"services.fulltime.label": "I work all day",
		"price_label": "Price",
		"price_day": "Price per day",
		"price_hour": "Price per hour"
	},
	"formTransportation":{
		"title": "Transportation information",
		"description": "Describes the transportation service.",
		"license": "Driving license",
		"propertyType": "Vehicle Ownership Type",
		"transportationType": "Type of transport",
		"phone1":"Telephone number (Ex: +53 123 456 78)",
		"phone2":"Phone number (Option 2)",
		"detail_technical_label": "Technical details",
		"matricule": "Car license plate",
		"passengers": "Places available",
		"price_label": "Price",
		"price_person": "Price per place",
		"price_hour": "Price per hour",
		"details": "Details",
		"features.luggage": "Luggage space",
		"features.air_conditioning": "Aire acondicionado",
		"features.rent_bycicle": "Bicycle rental",
		"features.reservation": "Previous reservation",
		"features.trailer": "Trailer",
		"features.handicapped_accessible": "Handicapped accessible",
		"features.availability_day": "Available during the day",
		"features.availability_nigth": "Available at night",
		"features.service24h": "24 hour service"

	},
	"formBedroom": {
		"title": "Bedrooms",
		"description":"Information detailed about bedrooms",
		"bedNumber":"Number of beds",
		"bedNumber.legend":"Number of beds in chamber",
		"bedNumber.option1":"One bed",
		"bedNumber.option2":"Two beds",
		"bedNumber.option3":"Third beds",
		"bedNumber.option4":"Others",
		"bedNumber.input":"Number of beds",
		"features": "Features",
		"features.private_entrance": "Private entrance",
		"features.elevator": "Elevator",
		"features.handicapped_accessible": "Handicapped accessible",
		"features.terrace": "Terrace",
		"features.balcony": "Balcony",
		"features.tv": "TV",
		"features.hot_water": "Hot water",
		"features.air_conditioning": "Air conditioning",
		"features.ventilator": "Fan",
		"features.fridge": "Fridge",
		"features.refrigerator": "Refrigerator",
		"features.filtered_water": "Filtered water",
		"features.phone": "Phone",
		"features.security_safe": "Security safe",
		"features.jacuzzi": "Jacuzzi",
		"features.hair_dryer": "Hair dryer",
		"features.wifi": "Wifi",
		"features.own_kitchen": "Own kitchen",
		"features.tan_chamber": "Tan Chamber",
		"features.linens": "Linens",
		"features.towels": "Towels",
		"features.closet": "Closet",
		"features.toilet_paper": "Toilet paper",
		"features.others": "Others options",
		"features.others.description": "Brief description about those options.",
		"panorama": "Panorama",
		"panorama.seaview": "Seaview",
		"panorama.garden": "Garden",
		"panorama.street_view": "Street view",
		"panorama.country_view": "Country view"
	},
	"formLodging": {
		"title": "Lodging information",
		"description":"Describe your accommodation",
		"name":"Host name",
		"email":"Correo electrónico",
		"phone1":"Phone number  (Ex: +53 123 456 78)",
		"phone2":"Phone number (Option 2)",
		"country":"Country",
		"street_address":"Hostel Address",
		"city":"City",
		"state":"State/Province",
		"zip":"Zip/Postal Code",
		"coordinates_label": "Lodging coordinates (location on map)",
		"latitude": "Latitude",
		"longitude": "Longitude",
		"availability": "Availability",
		"rooms": "Total Rooms",
		"max_capability": "Maximum capacity",
		"price_bed": "Price/bed",
		"others_information_label": "Other information",
		"checkin": "Check in times",
		"checkout": "Closing hour",
		"services_label": "Services (price)",
		"breakfast": "Breakfast",
		"dinner": "Dinner",
		"laundry": "Laundry",
		"detail_label": "Details",
		"rentType": "Type of rent",
		"floor": "Floor",
		"architecture_label": "Architecture",
		"architecture.colonial": "Colonial",
		"architecture.american": "American traditional",
		"architecture.french": "Traditional french",
		"architecture.mansion": "Mansion",
		"architecture.farm": "Farm",
		"architecture.building": "Building",
		"free_use": "Uso libre",
		"free_use.whasher": "Washer",
		"free_use.kitchen": "Kitchen",
		"free_use.ventilator": "Fan",
		"free_use.filtered_water": "Filtered water",
		"free_use.fridge": "Fridge",
		"free_use.refrigerator": "Refrigerador",
		"free_use.phone": "Telephone",
		"features": "Characteristic",
		"features.private_entrance": "Private entrance",
		"features.elevator": "Elevator",
		"features.handicapped_accessible": "Handicapped accessible",
		"features.terrace": "Terrace",
		"features.balcony": "Balcony",
		"features.tv": "TV",
		"features.hot_water": "Hot water",
		"features.air_conditioning": "Air conditioning",
		"features.ventilator": "Fan",
		"features.fridge": "Fridge",
		"features.refrigerator": "Refrigerator",
		"features.filtered_water": "Filtered water",
		"features.phone": "Telephone",
		"features.security_safe": "Security safe",
		"features.jacuzzi": "Jacuzzi",
		"features.hair_dryer": "Hair dryer",
		"features.wifi": "Wifi",
		"features.own_kitchen": "Own kitchen",
		"features.tan_chamber": "Tanning",
		"features.linens": "Linens",
		"features.towels": "Towels",
		"features.closet": "Closet",
		"features.toilet_paper": "Toilet paper",
		"features.bar": "Bar",
		"features.service_24h": "24 hour service",
		"features.others": "Other options",
		"features.others.description": "Brief description of the options.",
		"panorama": "Panorama",
		"panorama.seaview": "Seaview",
		"panorama.garden": "Garden",
		"panorama.street_view": "Street view",
		"panorama.country_view": "Country view"
	},
	"step1": {
		"title": "Cubag Processing Form",
		"quote": "Work with us",
		"start_process": "Start process",
		"p1": "The purpose of this process is to create a mechanism to insert information about the activity that you offer and that may be attractive to the tourism sector directly or indirectly.",
		"p2": "The information to share is separated into categories: Guide, Lodging, Attraction, Transportation, etc.",
		"p3": "If you offer more than one activity or your activities belong to different categories, you can also insert them at the end of the insertion of the previous activity."
	},
	"stepPersonalData": {
		"title": "Pick up your profile",
		"quote": "Work with us",
		"create_profile": "Create profile",
		"p1": "All infomation about your services will be connected to your profile"
		
	},

	"step2": {
		"title": "Pick up item to fill",
		"quote": "Work with us",
		"start_process": "Start process",
		"option1": "Lodging",
		"p1": "Define all the characteristics of your lodging. This form gives you the possibility to document how the qualifications are made up",
		"option2": "Guide",
		"p2": "Specify your characteristics as a guide. Comment what types of activities you develop and in which fields you feel more capable",
		"option3": "Activity",
		"p3": "Describe the activities you do. Within this form you can document attractions, visits to museums, restaurants and much more.",
		"option4": "Transportation data",
		"p4": "Define the characteristics of the transport. Share images of transport, passengers, work mode, etc."
	},
	"step3": {
		"title": "Fill current the form"
	},
	"labels": {
		"spanish": "Spanish",
		"english": "English",
		"transportations.title": "Transportation",
		"transportations.property": "Property",
		"transportations.passengers": "Passengers",
		"transportations": "Transportations",
		"updated": "Updated",
		"lodgings.title": "Lodging",
		"lodgings.bedrooms": "Bedrooms",
		"lodgings.phone": "Phone",
		"lodgings": "Lodgings",
		"guides": "Guides",
		"guides.title": "Guide",
		"guides.email": "Email",
		"guides.phone": "Phone",
		"activities": "Activities",
		"activities.title": "Activity",
		"activities.phone": "Phone",
		"bedrooms": "Bedrooms",
		"bedrooms.title": "Bedroom",
		"bedrooms.phone": "Phone"
	}
}